Practical Statistics in Medicine with R - 3 Paired t-test
…
# present the results
summary_weight <- summary_weight %>% 
  mutate(across(everything(), round, 2)) %>%   # round to 3 decimal places
  pivot_longer(1:30, names_to = "Stats", values_to = "Values")  # long format

summary_weight

# A tibble: 30 × 2
   Stats               Values
   <chr>                <dbl>
 1 dif_weight_N         25   
 2 dif_weight_Min      -30   
 3 dif_weight_Q1        20   
 4 dif_weight_median    40   
 5 dif_weight_Q3        70   
 6 dif_weight_Max      103   
 7 dif_weight_Mean      39.6 
 8 dif_weight_Sd        32.3 
 9 dif_weight_Skewness  -0.16
10 dif_weight_Kurtosis  -0.08
# … with 20 more rows
…
