Practical Statistics in Medicine with R - 8 Wilcoxon Signed-Rank test
…
# present the results
summary_eyes <- summary_eyes %>% 
  mutate(across(everything(), round, 2)) %>%   # round to 3 decimal places
  pivot_longer(1:33, names_to = "Stats", values_to = "Values")  # long format

summary_eyes

# A tibble: 33 × 2
   Stats                  Values
   <chr>                   <dbl>
 1 dif_thickness_n          8   
 2 dif_thickness_na         0   
 3 dif_thickness_min      -18   
 4 dif_thickness_q1       -13   
 5 dif_thickness_median    -3   
 6 dif_thickness_q3         4   
 7 dif_thickness_max       12   
 8 dif_thickness_mean      -4   
 9 dif_thickness_sd        10.7 
10 dif_thickness_skewness   0.03
# … with 23 more rows
…
